EESchema Schematic File Version 2
LIBS:JP8-voice-rescue
LIBS:power
LIBS:device
LIBS:transistors
LIBS:conn
LIBS:linear
LIBS:regul
LIBS:74xx
LIBS:cmos4000
LIBS:adc-dac
LIBS:memory
LIBS:xilinx
LIBS:microcontrollers
LIBS:dsp
LIBS:microchip
LIBS:analog_switches
LIBS:motorola
LIBS:texas
LIBS:intel
LIBS:audio
LIBS:interface
LIBS:digital-audio
LIBS:philips
LIBS:display
LIBS:cypress
LIBS:siliconi
LIBS:opto
LIBS:atmel
LIBS:contrib
LIBS:valves
LIBS:JP8-voice-cache
EELAYER 25 0
EELAYER END
$Descr A4 11693 8268
encoding utf-8
Sheet 18 52
Title ""
Date ""
Rev ""
Comp ""
Comment1 ""
Comment2 ""
Comment3 ""
Comment4 ""
$EndDescr
$Comp
L R R115
U 1 1 5BE827B4
P 4050 4150
AR Path="/5BE56E01/5BE5C903/5BE5CC8F/5BE827B4" Ref="R115"  Part="1" 
AR Path="/5BE56E01/5BE5C903/5BE5CC90/5BE827B4" Ref="R120"  Part="1" 
AR Path="/5BE56E01/5BE5C903/5BE5CC91/5BE827B4" Ref="R125"  Part="1" 
AR Path="/5BE56E01/5BE5C903/5BE5CC92/5BE827B4" Ref="R130"  Part="1" 
F 0 "R130" V 4130 4150 50  0000 C CNN
F 1 "1K" V 4050 4150 50  0000 C CNN
F 2 "Resistors_THT:R_Axial_DIN0207_L6.3mm_D2.5mm_P7.62mm_Horizontal" V 3980 4150 50  0001 C CNN
F 3 "" H 4050 4150 50  0001 C CNN
	1    4050 4150
	1    0    0    -1  
$EndComp
$Comp
L R R117
U 1 1 5BE827B6
P 5350 3150
AR Path="/5BE56E01/5BE5C903/5BE5CC8F/5BE827B6" Ref="R117"  Part="1" 
AR Path="/5BE56E01/5BE5C903/5BE5CC90/5BE827B6" Ref="R122"  Part="1" 
AR Path="/5BE56E01/5BE5C903/5BE5CC91/5BE827B6" Ref="R127"  Part="1" 
AR Path="/5BE56E01/5BE5C903/5BE5CC92/5BE827B6" Ref="R132"  Part="1" 
F 0 "R132" V 5430 3150 50  0000 C CNN
F 1 "10K" V 5350 3150 50  0000 C CNN
F 2 "Resistors_THT:R_Axial_DIN0207_L6.3mm_D2.5mm_P7.62mm_Horizontal" V 5280 3150 50  0001 C CNN
F 3 "" H 5350 3150 50  0001 C CNN
	1    5350 3150
	0    1    1    0   
$EndComp
$Comp
L C C21
U 1 1 5BE827B8
P 5050 2950
AR Path="/5BE56E01/5BE5C903/5BE5CC8F/5BE827B8" Ref="C21"  Part="1" 
AR Path="/5BE56E01/5BE5C903/5BE5CC90/5BE827B8" Ref="C22"  Part="1" 
AR Path="/5BE56E01/5BE5C903/5BE5CC91/5BE827B8" Ref="C23"  Part="1" 
AR Path="/5BE56E01/5BE5C903/5BE5CC92/5BE827B8" Ref="C24"  Part="1" 
F 0 "C24" H 5075 3050 50  0000 L CNN
F 1 "1N" H 5075 2850 50  0000 L CNN
F 2 "Capacitors_THT:C_Disc_D8.0mm_W5.0mm_P10.00mm" H 5088 2800 50  0001 C CNN
F 3 "" H 5050 2950 50  0001 C CNN
	1    5050 2950
	1    0    0    -1  
$EndComp
$Comp
L R R118
U 1 1 5BE827BB
P 5750 3700
AR Path="/5BE56E01/5BE5C903/5BE5CC8F/5BE827BB" Ref="R118"  Part="1" 
AR Path="/5BE56E01/5BE5C903/5BE5CC90/5BE827BB" Ref="R123"  Part="1" 
AR Path="/5BE56E01/5BE5C903/5BE5CC91/5BE827BB" Ref="R128"  Part="1" 
AR Path="/5BE56E01/5BE5C903/5BE5CC92/5BE827BB" Ref="R133"  Part="1" 
F 0 "R133" V 5830 3700 50  0000 C CNN
F 1 "10K" V 5750 3700 50  0000 C CNN
F 2 "Resistors_THT:R_Axial_DIN0207_L6.3mm_D2.5mm_P7.62mm_Horizontal" V 5680 3700 50  0001 C CNN
F 3 "" H 5750 3700 50  0001 C CNN
	1    5750 3700
	-1   0    0    1   
$EndComp
$Comp
L R R116
U 1 1 5BE827BC
P 4800 3400
AR Path="/5BE56E01/5BE5C903/5BE5CC8F/5BE827BC" Ref="R116"  Part="1" 
AR Path="/5BE56E01/5BE5C903/5BE5CC90/5BE827BC" Ref="R121"  Part="1" 
AR Path="/5BE56E01/5BE5C903/5BE5CC91/5BE827BC" Ref="R126"  Part="1" 
AR Path="/5BE56E01/5BE5C903/5BE5CC92/5BE827BC" Ref="R131"  Part="1" 
F 0 "R131" V 4880 3400 50  0000 C CNN
F 1 "220" V 4800 3400 50  0000 C CNN
F 2 "Resistors_THT:R_Axial_DIN0207_L6.3mm_D2.5mm_P7.62mm_Horizontal" V 4730 3400 50  0001 C CNN
F 3 "" H 4800 3400 50  0001 C CNN
	1    4800 3400
	-1   0    0    1   
$EndComp
$Comp
L R R114
U 1 1 5BE827BD
P 3250 3400
AR Path="/5BE56E01/5BE5C903/5BE5CC8F/5BE827BD" Ref="R114"  Part="1" 
AR Path="/5BE56E01/5BE5C903/5BE5CC90/5BE827BD" Ref="R119"  Part="1" 
AR Path="/5BE56E01/5BE5C903/5BE5CC91/5BE827BD" Ref="R124"  Part="1" 
AR Path="/5BE56E01/5BE5C903/5BE5CC92/5BE827BD" Ref="R129"  Part="1" 
F 0 "R129" V 3330 3400 50  0000 C CNN
F 1 "220" V 3250 3400 50  0000 C CNN
F 2 "Resistors_THT:R_Axial_DIN0207_L6.3mm_D2.5mm_P7.62mm_Horizontal" V 3180 3400 50  0001 C CNN
F 3 "" H 3250 3400 50  0001 C CNN
	1    3250 3400
	-1   0    0    1   
$EndComp
$Comp
L +5V #PWR028
U 1 1 5BE827C1
P 3250 3650
AR Path="/5BE56E01/5BE5C903/5BE5CC8F/5BE827C1" Ref="#PWR028"  Part="1" 
AR Path="/5BE56E01/5BE5C903/5BE5CC90/5BE827C1" Ref="#PWR032"  Part="1" 
AR Path="/5BE56E01/5BE5C903/5BE5CC91/5BE827C1" Ref="#PWR036"  Part="1" 
AR Path="/5BE56E01/5BE5C903/5BE5CC92/5BE827C1" Ref="#PWR040"  Part="1" 
F 0 "#PWR040" H 3250 3500 50  0001 C CNN
F 1 "+5V" H 3250 3790 50  0000 C CNN
F 2 "" H 3250 3650 50  0001 C CNN
F 3 "" H 3250 3650 50  0001 C CNN
	1    3250 3650
	-1   0    0    1   
$EndComp
$Comp
L +5V #PWR029
U 1 1 5BE827C2
P 4800 3650
AR Path="/5BE56E01/5BE5C903/5BE5CC8F/5BE827C2" Ref="#PWR029"  Part="1" 
AR Path="/5BE56E01/5BE5C903/5BE5CC90/5BE827C2" Ref="#PWR033"  Part="1" 
AR Path="/5BE56E01/5BE5C903/5BE5CC91/5BE827C2" Ref="#PWR037"  Part="1" 
AR Path="/5BE56E01/5BE5C903/5BE5CC92/5BE827C2" Ref="#PWR041"  Part="1" 
F 0 "#PWR041" H 4800 3500 50  0001 C CNN
F 1 "+5V" H 4800 3790 50  0000 C CNN
F 2 "" H 4800 3650 50  0001 C CNN
F 3 "" H 4800 3650 50  0001 C CNN
	1    4800 3650
	-1   0    0    1   
$EndComp
$Comp
L +5V #PWR030
U 1 1 5BE827C3
P 5050 3650
AR Path="/5BE56E01/5BE5C903/5BE5CC8F/5BE827C3" Ref="#PWR030"  Part="1" 
AR Path="/5BE56E01/5BE5C903/5BE5CC90/5BE827C3" Ref="#PWR034"  Part="1" 
AR Path="/5BE56E01/5BE5C903/5BE5CC91/5BE827C3" Ref="#PWR038"  Part="1" 
AR Path="/5BE56E01/5BE5C903/5BE5CC92/5BE827C3" Ref="#PWR042"  Part="1" 
F 0 "#PWR042" H 5050 3500 50  0001 C CNN
F 1 "+5V" H 5050 3790 50  0000 C CNN
F 2 "" H 5050 3650 50  0001 C CNN
F 3 "" H 5050 3650 50  0001 C CNN
	1    5050 3650
	-1   0    0    1   
$EndComp
$Comp
L -15V #PWR40
U 1 1 5BE827C4
P 5750 4150
AR Path="/5BE56E01/5BE5C903/5BE5CC8F/5BE827C4" Ref="#PWR40"  Part="1" 
AR Path="/5BE56E01/5BE5C903/5BE5CC90/5BE827C4" Ref="#PWR45"  Part="1" 
AR Path="/5BE56E01/5BE5C903/5BE5CC91/5BE827C4" Ref="#PWR50"  Part="1" 
AR Path="/5BE56E01/5BE5C903/5BE5CC92/5BE827C4" Ref="#PWR55"  Part="1" 
F 0 "#PWR55" H 5750 4250 50  0001 C CNN
F 1 "-15V" H 5750 4300 50  0000 C CNN
F 2 "" H 5750 4150 50  0001 C CNN
F 3 "" H 5750 4150 50  0001 C CNN
	1    5750 4150
	-1   0    0    1   
$EndComp
Wire Wire Line
	4000 2250 4100 2250
Wire Wire Line
	4400 1750 4400 2050
Wire Wire Line
	3700 2050 3700 1950
Wire Wire Line
	3700 1950 5750 1950
Connection ~ 4400 1950
Wire Wire Line
	3700 2550 4050 2550
Wire Wire Line
	4050 2550 4050 2250
Connection ~ 4050 2250
Wire Wire Line
	3700 2450 3700 2950
Connection ~ 3700 2550
Wire Wire Line
	4400 2450 4400 2950
Wire Wire Line
	4800 2900 4800 3250
Wire Wire Line
	4700 3150 5200 3150
Connection ~ 4800 3150
Wire Wire Line
	3250 3250 3250 3150
Wire Wire Line
	3250 3150 3400 3150
Wire Wire Line
	4400 2500 5100 2500
Connection ~ 4400 2500
Wire Wire Line
	5050 2800 5050 2500
Connection ~ 5050 2500
Wire Wire Line
	5050 3100 5050 3650
Wire Wire Line
	4800 3550 4800 3650
Wire Wire Line
	5750 3000 5750 3550
Wire Wire Line
	5500 3150 6050 3150
Connection ~ 5750 3150
Wire Wire Line
	5750 3850 5750 4150
Wire Wire Line
	5400 2700 5400 2800
Wire Wire Line
	5400 2800 5450 2800
Wire Wire Line
	5750 1950 5750 2600
Wire Wire Line
	5750 2250 5400 2250
Wire Wire Line
	5400 2250 5400 2300
Connection ~ 5750 2250
Wire Wire Line
	3250 3550 3250 3650
Wire Wire Line
	3700 3350 3700 3450
Wire Wire Line
	3700 3450 4400 3450
Wire Wire Line
	4400 3450 4400 3350
Wire Wire Line
	4050 4000 4050 3450
Connection ~ 4050 3450
Wire Wire Line
	4050 4300 4050 4550
Wire Wire Line
	3250 2900 4800 2900
$Comp
L +15V #PWR031
U 1 1 5BE827EC
P 4400 1750
AR Path="/5BE56E01/5BE5C903/5BE5CC8F/5BE827EC" Ref="#PWR031"  Part="1" 
AR Path="/5BE56E01/5BE5C903/5BE5CC90/5BE827EC" Ref="#PWR035"  Part="1" 
AR Path="/5BE56E01/5BE5C903/5BE5CC91/5BE827EC" Ref="#PWR039"  Part="1" 
AR Path="/5BE56E01/5BE5C903/5BE5CC92/5BE827EC" Ref="#PWR043"  Part="1" 
F 0 "#PWR043" H 4400 1600 50  0001 C CNN
F 1 "+15V" H 4400 1890 50  0000 C CNN
F 2 "" H 4400 1750 50  0001 C CNN
F 3 "" H 4400 1750 50  0001 C CNN
	1    4400 1750
	1    0    0    -1  
$EndComp
Text HLabel 6050 3150 2    60   Input ~ 0
out
Text HLabel 3250 2900 0    60   Input ~ 0
in
Text HLabel 4050 4550 3    60   Input ~ 0
cv
$Comp
L PMP4201 Q62
U 1 1 5BE94D6A
P 5300 2500
AR Path="/5BE56E01/5BE5C903/5BE5CC8F/5BE94D6A" Ref="Q62"  Part="1" 
AR Path="/5BE56E01/5BE5C903/5BE5CC90/5BE94D6A" Ref="Q65"  Part="1" 
AR Path="/5BE56E01/5BE5C903/5BE5CC91/5BE94D6A" Ref="Q68"  Part="1" 
AR Path="/5BE56E01/5BE5C903/5BE5CC92/5BE94D6A" Ref="Q71"  Part="1" 
F 0 "Q71" H 5675 2575 50  0000 R CNN
F 1 "PMP4201" H 5275 2675 50  0000 R CNN
F 2 "Housings_DIP:DIP-6_W7.62mm" H 5500 2600 50  0001 C CNN
F 3 "" H 5300 2500 50  0000 C CNN
	1    5300 2500
	1    0    0    -1  
$EndComp
$Comp
L PMP4201 Q62
U 2 1 5BE94DB8
P 5650 2800
AR Path="/5BE56E01/5BE5C903/5BE5CC8F/5BE94DB8" Ref="Q62"  Part="2" 
AR Path="/5BE56E01/5BE5C903/5BE5CC90/5BE94DB8" Ref="Q65"  Part="2" 
AR Path="/5BE56E01/5BE5C903/5BE5CC91/5BE94DB8" Ref="Q68"  Part="2" 
AR Path="/5BE56E01/5BE5C903/5BE5CC92/5BE94DB8" Ref="Q71"  Part="2" 
F 0 "Q71" H 6050 2900 50  0000 R CNN
F 1 "PMP4201" H 6250 2750 50  0000 R CNN
F 2 "Housings_DIP:DIP-6_W7.62mm" H 5850 2900 50  0001 C CNN
F 3 "" H 5650 2800 50  0000 C CNN
	2    5650 2800
	1    0    0    -1  
$EndComp
$Comp
L PMP4201 Q60
U 1 1 5BE94F76
P 3600 3150
AR Path="/5BE56E01/5BE5C903/5BE5CC8F/5BE94F76" Ref="Q60"  Part="1" 
AR Path="/5BE56E01/5BE5C903/5BE5CC90/5BE94F76" Ref="Q63"  Part="1" 
AR Path="/5BE56E01/5BE5C903/5BE5CC91/5BE94F76" Ref="Q66"  Part="1" 
AR Path="/5BE56E01/5BE5C903/5BE5CC92/5BE94F76" Ref="Q69"  Part="1" 
F 0 "Q69" H 3975 3225 50  0000 R CNN
F 1 "PMP4201" H 3475 3225 50  0000 R CNN
F 2 "Housings_DIP:DIP-6_W7.62mm" H 3800 3250 50  0001 C CNN
F 3 "" H 3600 3150 50  0000 C CNN
	1    3600 3150
	1    0    0    -1  
$EndComp
$Comp
L PMP4201 Q60
U 2 1 5BE94FC5
P 4500 3150
AR Path="/5BE56E01/5BE5C903/5BE5CC8F/5BE94FC5" Ref="Q60"  Part="2" 
AR Path="/5BE56E01/5BE5C903/5BE5CC90/5BE94FC5" Ref="Q63"  Part="2" 
AR Path="/5BE56E01/5BE5C903/5BE5CC91/5BE94FC5" Ref="Q66"  Part="2" 
AR Path="/5BE56E01/5BE5C903/5BE5CC92/5BE94FC5" Ref="Q69"  Part="2" 
F 0 "Q69" H 4850 3275 50  0000 R CNN
F 1 "PMP4201" H 4975 3025 50  0000 R CNN
F 2 "Housings_DIP:DIP-6_W7.62mm" H 4700 3250 50  0001 C CNN
F 3 "" H 4500 3150 50  0000 C CNN
	2    4500 3150
	-1   0    0    -1  
$EndComp
$Comp
L PMP5201 Q61
U 1 1 5BE9502E
P 3800 2250
AR Path="/5BE56E01/5BE5C903/5BE5CC8F/5BE9502E" Ref="Q61"  Part="1" 
AR Path="/5BE56E01/5BE5C903/5BE5CC90/5BE9502E" Ref="Q64"  Part="1" 
AR Path="/5BE56E01/5BE5C903/5BE5CC91/5BE9502E" Ref="Q67"  Part="1" 
AR Path="/5BE56E01/5BE5C903/5BE5CC92/5BE9502E" Ref="Q70"  Part="1" 
F 0 "Q70" H 4150 2325 50  0000 R CNN
F 1 "PMP5201" H 4325 2200 50  0000 R CNN
F 2 "Housings_DIP:DIP-6_W7.62mm" H 4000 2350 50  0001 C CNN
F 3 "" H 3800 2250 50  0000 C CNN
	1    3800 2250
	-1   0    0    1   
$EndComp
$Comp
L PMP5201 Q61
U 2 1 5BE9510C
P 4300 2250
AR Path="/5BE56E01/5BE5C903/5BE5CC8F/5BE9510C" Ref="Q61"  Part="2" 
AR Path="/5BE56E01/5BE5C903/5BE5CC90/5BE9510C" Ref="Q64"  Part="2" 
AR Path="/5BE56E01/5BE5C903/5BE5CC91/5BE9510C" Ref="Q67"  Part="2" 
AR Path="/5BE56E01/5BE5C903/5BE5CC92/5BE9510C" Ref="Q70"  Part="2" 
F 0 "Q70" H 4675 2350 50  0000 R CNN
F 1 "PMP5201" H 4825 2200 50  0000 R CNN
F 2 "Housings_DIP:DIP-6_W7.62mm" H 4500 2350 50  0001 C CNN
F 3 "" H 4300 2250 50  0000 C CNN
	2    4300 2250
	1    0    0    1   
$EndComp
$EndSCHEMATC
