(module C_Rect_L10.0mm_W2.5mm_P7.50mm_MKS4 (layer F.Cu) (tedit 5BF2A537)
  (descr "C, Rect series, Radial, pin pitch=7.50mm, , length*width=10*2.5mm^2, Capacitor, http://www.wima.com/EN/WIMA_MKS_4.pdf")
  (tags "C Rect series Radial pin pitch 7.50mm  length 10mm width 2.5mm Capacitor")
  (fp_text reference REF** (at 3.81 0) (layer F.SilkS)
    (effects (font (size 1 1) (thickness 0.15)))
  )
  (fp_text value C_Rect_L10.0mm_W2.5mm_P7.50mm_MKS4 (at 3.75 2.31) (layer F.Fab)
    (effects (font (size 1 1) (thickness 0.15)))
  )
  (fp_line (start -1.25 -1.25) (end -1.25 1.25) (layer F.Fab) (width 0.1))
  (fp_line (start -1.25 1.25) (end 8.75 1.25) (layer F.Fab) (width 0.1))
  (fp_line (start 8.75 1.25) (end 8.75 -1.25) (layer F.Fab) (width 0.1))
  (fp_line (start 8.75 -1.25) (end -1.25 -1.25) (layer F.Fab) (width 0.1))
  (fp_line (start -1.31 -1.31) (end 8.81 -1.31) (layer F.SilkS) (width 0.12))
  (fp_line (start -1.31 1.31) (end 8.81 1.31) (layer F.SilkS) (width 0.12))
  (fp_line (start -1.31 -1.31) (end -1.31 1.31) (layer F.SilkS) (width 0.12))
  (fp_line (start 8.81 -1.31) (end 8.81 1.31) (layer F.SilkS) (width 0.12))
  (fp_line (start -1.6 -1.6) (end -1.6 1.6) (layer F.CrtYd) (width 0.05))
  (fp_line (start -1.6 1.6) (end 9.1 1.6) (layer F.CrtYd) (width 0.05))
  (fp_line (start 9.1 1.6) (end 9.1 -1.6) (layer F.CrtYd) (width 0.05))
  (fp_line (start 9.1 -1.6) (end -1.6 -1.6) (layer F.CrtYd) (width 0.05))
  (pad 1 thru_hole circle (at 0 0) (size 1.6 1.6) (drill 0.8) (layers *.Cu *.Mask))
  (pad 2 thru_hole circle (at 7.5 0) (size 1.6 1.6) (drill 0.8) (layers *.Cu *.Mask))
  (model Capacitors_THT.3dshapes/C_Rect_L10.0mm_W2.5mm_P7.50mm_MKS4.wrl
    (at (xyz 0 0 0))
    (scale (xyz 0.393701 0.393701 0.393701))
    (rotate (xyz 0 0 0))
  )
)
