(module R_Axial_DIN0207_L6.3mm_D2.5mm_P10.16mm_Horizontal_MF (layer F.Cu) (tedit 5BF197A1)
  (descr "Resistor, Axial_DIN0207 series, Axial, Horizontal, pin pitch=10.16mm, 0.25W = 1/4W, length*diameter=6.3*2.5mm^2, http://cdn-reichelt.de/documents/datenblatt/B400/1_4W%23YAG.pdf")
  (tags "Resistor Axial_DIN0207 series Axial Horizontal pin pitch 10.16mm 0.25W = 1/4W length 6.3mm diameter 2.5mm")
  (fp_text reference REF** (at 5.08 0) (layer F.SilkS)
    (effects (font (size 1 1) (thickness 0.15)))
  )
  (fp_text value R_Axial_DIN0207_L6.3mm_D2.5mm_P10.16mm_Horizontal (at 5.08 2.31) (layer F.Fab)
    (effects (font (size 1 1) (thickness 0.15)))
  )
  (fp_line (start 7.874 -1.27) (end 7.874 1.2065) (layer F.SilkS) (width 0.15))
  (fp_line (start 7.874 1.2065) (end 8.001 1.2065) (layer F.SilkS) (width 0.15))
  (fp_line (start 8.001 1.2065) (end 8.001 -1.27) (layer F.SilkS) (width 0.15))
  (fp_line (start 8.001 -1.27) (end 8.128 -1.27) (layer F.SilkS) (width 0.15))
  (fp_line (start 8.128 -1.27) (end 8.128 1.2065) (layer F.SilkS) (width 0.15))
  (fp_line (start 8.128 1.2065) (end 8.1915 1.2065) (layer F.SilkS) (width 0.15))
  (fp_line (start 8.1915 1.2065) (end 8.1915 -1.27) (layer F.SilkS) (width 0.15))
  (fp_line (start 8.1915 -1.27) (end 7.493 -1.27) (layer F.SilkS) (width 0.15))
  (fp_line (start 7.493 -1.27) (end 7.493 1.2065) (layer F.SilkS) (width 0.15))
  (fp_line (start 7.493 1.2065) (end 7.366 1.2065) (layer F.SilkS) (width 0.15))
  (fp_line (start 7.366 1.2065) (end 7.366 -1.27) (layer F.SilkS) (width 0.15))
  (fp_line (start 7.366 -1.27) (end 7.239 -1.27) (layer F.SilkS) (width 0.15))
  (fp_line (start 7.239 -1.27) (end 7.239 1.2065) (layer F.SilkS) (width 0.15))
  (fp_line (start 7.747 -1.27) (end 7.747 1.27) (layer F.SilkS) (width 0.15))
  (fp_line (start 7.62 1.27) (end 7.62 -1.27) (layer F.SilkS) (width 0.15))
  (fp_line (start 1.93 -1.25) (end 1.93 1.25) (layer F.Fab) (width 0.1))
  (fp_line (start 1.93 1.25) (end 8.23 1.25) (layer F.Fab) (width 0.1))
  (fp_line (start 8.23 1.25) (end 8.23 -1.25) (layer F.Fab) (width 0.1))
  (fp_line (start 8.23 -1.25) (end 1.93 -1.25) (layer F.Fab) (width 0.1))
  (fp_line (start 0 0) (end 1.93 0) (layer F.Fab) (width 0.1))
  (fp_line (start 10.16 0) (end 8.23 0) (layer F.Fab) (width 0.1))
  (fp_line (start 1.87 -1.31) (end 1.87 1.31) (layer F.SilkS) (width 0.12))
  (fp_line (start 1.87 1.31) (end 8.29 1.31) (layer F.SilkS) (width 0.12))
  (fp_line (start 8.29 1.31) (end 8.29 -1.31) (layer F.SilkS) (width 0.12))
  (fp_line (start 8.29 -1.31) (end 1.87 -1.31) (layer F.SilkS) (width 0.12))
  (fp_line (start 0.98 0) (end 1.87 0) (layer F.SilkS) (width 0.12))
  (fp_line (start 9.18 0) (end 8.29 0) (layer F.SilkS) (width 0.12))
  (fp_line (start -1.05 -1.6) (end -1.05 1.6) (layer F.CrtYd) (width 0.05))
  (fp_line (start -1.05 1.6) (end 11.25 1.6) (layer F.CrtYd) (width 0.05))
  (fp_line (start 11.25 1.6) (end 11.25 -1.6) (layer F.CrtYd) (width 0.05))
  (fp_line (start 11.25 -1.6) (end -1.05 -1.6) (layer F.CrtYd) (width 0.05))
  (pad 1 thru_hole circle (at 0 0) (size 1.6 1.6) (drill 0.8) (layers *.Cu *.Mask))
  (pad 2 thru_hole oval (at 10.16 0) (size 1.6 1.6) (drill 0.8) (layers *.Cu *.Mask))
  (model Resistors_THT.3dshapes/R_Axial_DIN0207_L6.3mm_D2.5mm_P10.16mm_Horizontal.wrl
    (at (xyz 0 0 0))
    (scale (xyz 0.393701 0.393701 0.393701))
    (rotate (xyz 0 0 0))
  )
)
